<?xml version="1.0" encoding="UTF-8" standalone="no"?>
<!-- Created with Inkscape (http://www.inkscape.org/) -->

<svg
   width="512"
   height="512"
   viewBox="0 0 512 512"
   version="1.1"
   id="svg1"
   xml:space="preserve"
   inkscape:export-filename="logo.png"
   inkscape:export-xdpi="96"
   inkscape:export-ydpi="96"
   inkscape:version="1.3 (0e150ed6c4, 2023-07-21)"
   sodipodi:docname="openid-connect-logo.svg"
   xmlns:inkscape="http://www.inkscape.org/namespaces/inkscape"
   xmlns:sodipodi="http://sodipodi.sourceforge.net/DTD/sodipodi-0.dtd"
   xmlns:xlink="http://www.w3.org/1999/xlink"
   xmlns="http://www.w3.org/2000/svg"
   xmlns:svg="http://www.w3.org/2000/svg"><sodipodi:namedview
     id="namedview1"
     pagecolor="#ffffff"
     bordercolor="#000000"
     borderopacity="0.25"
     inkscape:showpageshadow="2"
     inkscape:pageopacity="0.0"
     inkscape:pagecheckerboard="0"
     inkscape:deskcolor="#d1d1d1"
     inkscape:document-units="px"
     showguides="false"
     inkscape:zoom="0.22270313"
     inkscape:cx="2370.8693"
     inkscape:cy="1403.2134"
     inkscape:window-width="1920"
     inkscape:window-height="1011"
     inkscape:window-x="0"
     inkscape:window-y="0"
     inkscape:window-maximized="1"
     inkscape:current-layer="layer1"><sodipodi:guide
       position="49.360117,353.06042"
       orientation="1,0"
       id="guide5"
       inkscape:locked="false" /><sodipodi:guide
       position="460.03629,461.65268"
       orientation="1,0"
       id="guide6"
       inkscape:locked="false" /><sodipodi:guide
       position="672.1344,462.89054"
       orientation="0,-1"
       id="guide7"
       inkscape:locked="false" /><sodipodi:guide
       position="759.1586,51.963708"
       orientation="0,-1"
       id="guide8"
       inkscape:locked="false" /><sodipodi:guide
       position="260.21301,460.20405"
       orientation="1,0"
       id="guide10"
       inkscape:locked="false" /></sodipodi:namedview><defs
     id="defs1"><rect
       x="3560.7503"
       y="174.86915"
       width="667.13305"
       height="127.8809"
       id="rect74" /><linearGradient
       id="linearGradient74"><stop
         style="stop-color:#fdfcfb;stop-opacity:1;"
         offset="0"
         id="stop73" /><stop
         style="stop-color:#e2d1c3;stop-opacity:0.49803922;"
         offset="0.99989998"
         id="stop74" /></linearGradient><linearGradient
       id="linearGradient72"><stop
         style="stop-color:#764ba2;stop-opacity:1;"
         offset="0"
         id="stop71" /><stop
         style="stop-color:#667eea;stop-opacity:0.49803922;"
         offset="0.99989998"
         id="stop72" /></linearGradient><linearGradient
       id="linearGradient70"><stop
         style="stop-color:#ffecd2;stop-opacity:1;"
         offset="0"
         id="stop69" /><stop
         style="stop-color:#fcb69f;stop-opacity:0.49803922;"
         offset="0.99989998"
         id="stop70" /></linearGradient><linearGradient
       id="linearGradient68"><stop
         style="stop-color:#09203f;stop-opacity:1;"
         offset="0"
         id="stop67" /><stop
         style="stop-color:#537895;stop-opacity:0.49803922;"
         offset="0.99989998"
         id="stop68" /></linearGradient><linearGradient
       id="linearGradient66"><stop
         style="stop-color:#868f96;stop-opacity:1;"
         offset="0"
         id="stop65" /><stop
         style="stop-color:#596164;stop-opacity:0.49803922;"
         offset="1"
         id="stop66" /></linearGradient><linearGradient
       id="linearGradient64"><stop
         style="stop-color:#93a5cf;stop-opacity:1;"
         offset="0"
         id="stop63" /><stop
         style="stop-color:#e4efe9;stop-opacity:0.49803922;"
         offset="0.99989998"
         id="stop64" /></linearGradient><linearGradient
       id="linearGradient57"><stop
         style="stop-color:#c33764;stop-opacity:1;"
         offset="0"
         id="stop56" /><stop
         style="stop-color:#1d2671;stop-opacity:0.49803922;"
         offset="0.99989998"
         id="stop57" /></linearGradient><linearGradient
       id="linearGradient55"><stop
         style="stop-color:#a9f1df;stop-opacity:1;"
         offset="0"
         id="stop54" /><stop
         style="stop-color:#ffbbbb;stop-opacity:0.49803922;"
         offset="0.99989998"
         id="stop55" /></linearGradient><linearGradient
       id="linearGradient53"><stop
         style="stop-color:#4e65ff;stop-opacity:1;"
         offset="0"
         id="stop52" /><stop
         style="stop-color:#92effd;stop-opacity:0.49803922;"
         offset="0.99989998"
         id="stop53" /></linearGradient><linearGradient
       id="linearGradient51"><stop
         style="stop-color:#bff098;stop-opacity:1;"
         offset="0"
         id="stop50" /><stop
         style="stop-color:#6fd6ff;stop-opacity:0.49803922;"
         offset="0.99989998"
         id="stop51" /></linearGradient><linearGradient
       id="linearGradient49"><stop
         style="stop-color:#ff61d2;stop-opacity:1;"
         offset="0"
         id="stop48" /><stop
         style="stop-color:#fe9090;stop-opacity:0.49803922;"
         offset="0.99989998"
         id="stop49" /></linearGradient><linearGradient
       id="linearGradient47"><stop
         style="stop-color:#d8b5ff;stop-opacity:1;"
         offset="0"
         id="stop46" /><stop
         style="stop-color:#1eae98;stop-opacity:0.49803922;"
         offset="0.99989998"
         id="stop47" /></linearGradient><linearGradient
       id="linearGradient40"><stop
         style="stop-color:#ea8d8d;stop-opacity:1;"
         offset="0"
         id="stop39" /><stop
         style="stop-color:#a890fe;stop-opacity:0.49803922;"
         offset="0.99989998"
         id="stop40" /></linearGradient><linearGradient
       id="linearGradient38"><stop
         style="stop-color:#c6ea8d;stop-opacity:1;"
         offset="0"
         id="stop37" /><stop
         style="stop-color:#fe90af;stop-opacity:0.49803922;"
         offset="0.99989998"
         id="stop38" /></linearGradient><linearGradient
       id="linearGradient36"><stop
         style="stop-color:#11998e;stop-opacity:1;"
         offset="0"
         id="stop35" /><stop
         style="stop-color:#38ef7d;stop-opacity:0.49803922;"
         offset="0.99989998"
         id="stop36" /></linearGradient><linearGradient
       id="linearGradient34"><stop
         style="stop-color:#ff5f6d;stop-opacity:1;"
         offset="0"
         id="stop33" /><stop
         style="stop-color:#ffc371;stop-opacity:0.49803922;"
         offset="0.99989998"
         id="stop34" /></linearGradient><linearGradient
       id="linearGradient32"><stop
         style="stop-color:#ff512f;stop-opacity:1;"
         offset="0"
         id="stop31" /><stop
         style="stop-color:#dd2476;stop-opacity:0.49803922;"
         offset="0.99989998"
         id="stop32" /></linearGradient><linearGradient
       id="linearGradient30"><stop
         style="stop-color:#02aabd;stop-opacity:1;"
         offset="0"
         id="stop29" /><stop
         style="stop-color:#00cdac;stop-opacity:0.49803922;"
         offset="0.99989998"
         id="stop30" /></linearGradient><linearGradient
       id="linearGradient23"><stop
         style="stop-color:#614385;stop-opacity:1;"
         offset="0"
         id="stop22" /><stop
         style="stop-color:#516395;stop-opacity:0.49803922;"
         offset="0.99989998"
         id="stop23" /></linearGradient><linearGradient
       id="linearGradient21"><stop
         style="stop-color:#ee9ca7;stop-opacity:1;"
         offset="0"
         id="stop20" /><stop
         style="stop-color:#ffdde1;stop-opacity:0.49803922;"
         offset="0.99989998"
         id="stop21" /></linearGradient><linearGradient
       id="linearGradient19"><stop
         style="stop-color:#662d8c;stop-opacity:1;"
         offset="0"
         id="stop18" /><stop
         style="stop-color:#ed1e79;stop-opacity:0.49803922;"
         offset="0.99989998"
         id="stop19" /></linearGradient><linearGradient
       id="linearGradient17"><stop
         style="stop-color:#009245;stop-opacity:1;"
         offset="0"
         id="stop16" /><stop
         style="stop-color:#fcee21;stop-opacity:0.49803922;"
         offset="0.99989998"
         id="stop17" /></linearGradient><linearGradient
       id="linearGradient15"><stop
         style="stop-color:#d4145a;stop-opacity:1;"
         offset="0"
         id="stop14" /><stop
         style="stop-color:#fbb03b;stop-opacity:0.49803922;"
         offset="0.99989998"
         id="stop15" /></linearGradient><rect
       x="90.416505"
       y="-110.38916"
       width="352.89848"
       height="90.233447"
       id="rect10" /><linearGradient
       id="linearGradient1"><stop
         style="stop-color:#2e3192;stop-opacity:1;"
         offset="0"
         id="stop3" /><stop
         style="stop-color:#1bffff;stop-opacity:0.49803922;"
         offset="0.99989998"
         id="stop5" /></linearGradient><linearGradient
       inkscape:collect="always"
       xlink:href="#linearGradient36"
       id="linearGradient27"
       gradientUnits="userSpaceOnUse"
       x1="-11.53407"
       y1="424.88486"
       x2="567.48389"
       y2="101.15192" /><rect
       x="3560.7502"
       y="174.86916"
       width="262.10117"
       height="79.395934"
       id="rect74-4" /><rect
       x="3560.7502"
       y="174.86916"
       width="667.13306"
       height="127.8809"
       id="rect74-4-8" /><rect
       x="3560.7502"
       y="174.86916"
       width="667.13306"
       height="127.8809"
       id="rect74-4-7" /><rect
       x="3560.7502"
       y="174.86916"
       width="262.10117"
       height="79.395935"
       id="rect74-4-78" /><rect
       x="3560.7502"
       y="174.86916"
       width="262.10117"
       height="79.395935"
       id="rect74-4-78-7" /><rect
       x="3560.7502"
       y="174.86916"
       width="262.10117"
       height="79.395935"
       id="rect74-4-78-9" /><rect
       x="3560.7502"
       y="174.86916"
       width="262.10117"
       height="79.395935"
       id="rect74-4-78-97" /><rect
       x="3560.7502"
       y="174.86916"
       width="262.10117"
       height="79.395935"
       id="rect74-4-78-2" /><rect
       x="3560.7502"
       y="174.86916"
       width="262.10117"
       height="79.395935"
       id="rect74-4-78-0" /><rect
       x="3560.7502"
       y="174.86916"
       width="262.10117"
       height="79.395935"
       id="rect74-4-78-0-6" /><rect
       x="3560.7502"
       y="174.86916"
       width="262.10117"
       height="79.395935"
       id="rect74-4-0" /><rect
       x="3560.7502"
       y="174.86916"
       width="262.10117"
       height="79.395935"
       id="rect74-4-78-8" /><rect
       x="3560.7502"
       y="174.86916"
       width="262.10117"
       height="79.395935"
       id="rect74-4-78-7-1" /><rect
       x="3560.7502"
       y="174.86916"
       width="262.10117"
       height="79.395935"
       id="rect74-4-78-2-0" /><rect
       x="3560.7502"
       y="174.86916"
       width="262.10117"
       height="79.395935"
       id="rect74-4-78-97-2" /><rect
       x="3560.7502"
       y="174.86916"
       width="262.10117"
       height="79.395935"
       id="rect74-4-78-9-2" /><rect
       x="3560.7502"
       y="174.86916"
       width="262.10117"
       height="79.395935"
       id="rect74-4-6" /><rect
       x="3560.7502"
       y="174.86916"
       width="262.10117"
       height="79.395935"
       id="rect74-4-78-08" /><rect
       x="3560.7502"
       y="174.86916"
       width="262.10117"
       height="79.395935"
       id="rect74-4-78-7-5" /><rect
       x="3560.7502"
       y="174.86916"
       width="262.10117"
       height="79.395935"
       id="rect74-4-78-2-3" /><rect
       x="3560.7502"
       y="174.86916"
       width="262.10117"
       height="79.395935"
       id="rect74-4-78-97-9" /><rect
       x="3560.7502"
       y="174.86916"
       width="262.10117"
       height="79.395935"
       id="rect74-4-78-9-4" /><rect
       x="3560.7502"
       y="174.86916"
       width="262.10117"
       height="79.395935"
       id="rect74-4-3" /><rect
       x="3560.7502"
       y="174.86916"
       width="262.10117"
       height="79.395935"
       id="rect74-4-78-5" /><rect
       x="3560.7502"
       y="174.86916"
       width="262.10117"
       height="79.395935"
       id="rect74-4-78-7-0" /><rect
       x="3560.7502"
       y="174.86916"
       width="262.10117"
       height="79.395935"
       id="rect74-4-78-2-8" /><rect
       x="3560.7502"
       y="174.86916"
       width="262.10117"
       height="79.395935"
       id="rect74-4-78-97-0" /><rect
       x="3560.7502"
       y="174.86916"
       width="262.10117"
       height="79.395935"
       id="rect74-4-78-9-41" /><clipPath
       id="clip-glossary"><rect
         width="32"
         height="32"
         id="rect1-2" /></clipPath><rect
       x="3560.7502"
       y="174.86916"
       width="262.10117"
       height="79.395935"
       id="rect74-4-78-2-0-7" /><rect
       x="3560.7502"
       y="174.86916"
       width="262.10117"
       height="79.395935"
       id="rect74-4-78-2-0-2" /><rect
       x="3560.7502"
       y="174.86916"
       width="262.10117"
       height="79.395935"
       id="rect74-4-78-2-0-7-6" /><rect
       x="3560.7502"
       y="174.86916"
       width="262.10117"
       height="79.395935"
       id="rect74-4-78-2-0-7-60" /><rect
       x="3560.7502"
       y="174.86916"
       width="262.10117"
       height="79.395935"
       id="rect74-4-78-2-0-7-8" /><rect
       x="3560.7502"
       y="174.86916"
       width="262.10117"
       height="79.395935"
       id="rect74-4-78-2-0-7-3" /><rect
       x="3560.7502"
       y="174.86916"
       width="262.10117"
       height="79.395935"
       id="rect74-4-78-2-3-6" /><rect
       x="3560.7502"
       y="174.86916"
       width="262.10117"
       height="79.395935"
       id="rect74-4-78-2-3-6-9" /><rect
       x="3560.7502"
       y="174.86916"
       width="262.10117"
       height="79.395935"
       id="rect74-4-78-2-3-6-9-3" /><rect
       x="3560.7502"
       y="174.86916"
       width="262.10117"
       height="79.395935"
       id="rect74-4-78-2-3-6-9-7" /></defs><g
     inkscape:label="Layer 1"
     inkscape:groupmode="layer"
     id="layer1"><rect
       style="font-variation-settings:normal;vector-effect:none;fill:url(#linearGradient27);fill-opacity:1;stroke-width:2;stroke-linecap:butt;stroke-linejoin:miter;stroke-miterlimit:4;stroke-dasharray:none;stroke-dashoffset:0;stroke-opacity:1;-inkscape-stroke:none;stop-color:#000000"
       id="rect12-0"
       width="512"
       height="512"
       x="0"
       y="0"
       inkscape:export-filename="logo.png"
       inkscape:export-xdpi="96"
       inkscape:export-ydpi="96" /><rect
       style="display:none;fill:none;stroke:#ff0000;stroke-width:2"
       id="rect9"
       width="409.45761"
       height="411.46674"
       x="50.277908"
       y="48.955208" /><text
       xml:space="preserve"
       id="text74-7"
       style="font-style:normal;font-variant:normal;font-weight:normal;font-stretch:normal;font-size:53.3333px;font-family:'Fira Sans Compressed';-inkscape-font-specification:'Fira Sans Compressed, Normal';font-variant-ligatures:normal;font-variant-caps:normal;font-variant-numeric:normal;font-variant-east-asian:normal;font-variation-settings:normal;text-align:center;white-space:pre;shape-inside:url(#rect74-4-0);display:inline;vector-effect:none;fill:#ffffff;fill-opacity:1;stroke:none;stroke-width:2;stroke-linecap:butt;stroke-linejoin:miter;stroke-miterlimit:4;stroke-dasharray:none;stroke-dashoffset:0;stroke-opacity:1;-inkscape-stroke:none"
       transform="matrix(1.5854008,0,0,1.5854008,-5600.1285,105.7461)"
       x="101.30659"
       y="0"><tspan
         x="3616.6008"
         y="223.09133"
         id="tspan1">OPENID</tspan></text><g
       id="SVGRepo_bgCarrier"
       stroke-width="0"
       transform="translate(-713,408)"
       style="fill:#ffffff" /><g
       id="SVGRepo_tracerCarrier"
       stroke-linecap="round"
       stroke-linejoin="round"
       transform="translate(-713,408)"
       style="fill:#ffffff" /><g
       id="SVGRepo_bgCarrier-9"
       stroke-width="0"
       transform="matrix(10.844592,0,0,10.844592,85.57995,37.883957)"
       style="fill:#ffffff" /><g
       id="SVGRepo_tracerCarrier-1"
       stroke-linecap="round"
       stroke-linejoin="round"
       transform="matrix(10.844592,0,0,10.844592,85.57995,37.883957)"
       style="fill:#ffffff" /><g
       id="SVGRepo_bgCarrier-2"
       stroke-width="0"
       transform="matrix(0.35930263,0,0,0.35930263,637.27216,563.87204)"
       style="fill:#ffffff" /><g
       id="SVGRepo_tracerCarrier-8"
       stroke-linecap="round"
       stroke-linejoin="round"
       transform="matrix(0.35930263,0,0,0.35930263,637.27216,563.87204)"
       style="fill:#ffffff" /><g
       id="SVGRepo_bgCarrier-7"
       stroke-width="0"
       transform="matrix(14.767818,0,0,14.767818,662.73748,12.872385)"
       style="fill:none" /><g
       id="SVGRepo_tracerCarrier-4"
       stroke-linecap="round"
       stroke-linejoin="round"
       transform="matrix(14.767818,0,0,14.767818,662.73748,12.872385)"
       style="fill:none" /><g
       id="SVGRepo_bgCarrier-24"
       stroke-width="0"
       transform="matrix(15.880023,0,0,15.880023,1190.7994,30.086973)"
       style="fill:none;stroke:#ffffff" /><g
       id="SVGRepo_tracerCarrier-43"
       stroke-linecap="round"
       stroke-linejoin="round"
       transform="matrix(15.880023,0,0,15.880023,1190.7994,30.086973)"
       style="fill:none;stroke:#ffffff" /><g
       id="SVGRepo_bgCarrier-22"
       stroke-width="0"
       transform="matrix(16.522477,0,0,16.522477,1741.3307,-25.231983)"
       style="stroke:#ffffff" /><g
       id="SVGRepo_tracerCarrier-3"
       stroke-linecap="round"
       stroke-linejoin="round"
       transform="matrix(16.522477,0,0,16.522477,1741.3307,-25.231983)"
       style="stroke:#ffffff" /><g
       id="SVGRepo_bgCarrier-245"
       stroke-width="0"
       transform="matrix(14.620606,0,0,14.620606,2255.2916,30.327444)"
       style="fill:none;stroke:#ffffff" /><g
       id="SVGRepo_tracerCarrier-17"
       stroke-linecap="round"
       stroke-linejoin="round"
       transform="matrix(14.620606,0,0,14.620606,2255.2916,30.327444)"
       style="fill:none;stroke:#ffffff" /><g
       id="SVGRepo_bgCarrier-1"
       stroke-width="0"
       transform="matrix(14.947781,0,0,14.947781,2315.1279,29.31886)"
       style="fill:none;stroke:#ffffff" /><g
       id="SVGRepo_tracerCarrier-33"
       stroke-linecap="round"
       stroke-linejoin="round"
       transform="matrix(14.947781,0,0,14.947781,2315.1279,29.31886)"
       style="fill:none;stroke:#ffffff" /><g
       id="SVGRepo_bgCarrier-8"
       stroke-width="0"
       transform="translate(1648,831)" /><g
       id="SVGRepo_tracerCarrier-48"
       stroke-linecap="round"
       stroke-linejoin="round"
       transform="translate(1648,831)" /><g
       id="SVGRepo_bgCarrier-3"
       stroke-width="0"
       transform="matrix(14.925953,0,0,14.925953,2355.1985,590.88886)"
       style="fill:none;stroke:#ffffff" /><g
       id="SVGRepo_tracerCarrier-14"
       stroke-linecap="round"
       stroke-linejoin="round"
       transform="matrix(14.925953,0,0,14.925953,2355.1985,590.88886)"
       style="fill:none;stroke:#ffffff" /><g
       id="g75"
       transform="matrix(0.85650788,0,0,0.85650788,-1402.7051,-449.64355)"><path
         d="m 2067.7381,735.56289 c -32.0042,-19.92715 -76.6893,-32.30614 -125.6014,-32.30614 -98.4281,0 -178.1367,49.21402 -178.1367,109.90125 0,55.5545 66.4239,101.1454 152.4729,108.9955 v -32.0043 c -57.9699,-7.2462 -101.4473,-38.9485 -101.4473,-76.9912 0,-43.1755 56.7622,-78.50089 127.1111,-78.50089 35.0234,0 66.7257,8.75587 89.6721,22.94641 l -32.608,20.22908 H 2100.95 v -62.80071 z"
         style="fill:#ffffff;fill-opacity:1;stroke-width:0.0377408"
         id="path2204" /><path
         d="m 1916.4729,648.90999 v 241.23921 32.0043 l 51.0256,-32.0043 V 616 Z"
         style="fill:#ffffff;fill-opacity:1;stroke-width:0.0377408"
         id="path2206" /></g><g
       id="SVGRepo_bgCarrier-32"
       stroke-width="0"
       transform="matrix(15.072996,0,0,15.072996,79.46294,1169.6942)"
       style="fill:none;stroke:#ffffff" /><g
       id="SVGRepo_tracerCarrier-175"
       stroke-linecap="round"
       stroke-linejoin="round"
       transform="matrix(15.072996,0,0,15.072996,79.46294,1169.6942)"
       style="fill:none;stroke:#ffffff" /><g
       id="SVGRepo_bgCarrier-6"
       stroke-width="0"
       transform="matrix(14.887636,0,0,14.887636,81.94038,31.838374)"
       style="fill:none;stroke:#ffffff" /><g
       id="SVGRepo_tracerCarrier-5"
       stroke-linecap="round"
       stroke-linejoin="round"
       transform="matrix(14.887636,0,0,14.887636,81.94038,31.838374)"
       style="fill:none;stroke:#ffffff" /><g
       id="SVGRepo_bgCarrier-89"
       stroke-width="0"
       transform="matrix(0.38298941,0,0,0.38298941,616.46259,1070.3933)"
       style="fill:#ffffff" /><g
       id="SVGRepo_tracerCarrier-88"
       stroke-linecap="round"
       stroke-linejoin="round"
       transform="matrix(0.38298941,0,0,0.38298941,616.46259,1070.3933)"
       style="fill:#ffffff" /><g
       id="SVGRepo_bgCarrier-12"
       stroke-width="0"
       transform="matrix(14.765906,0,0,14.765907,1754.777,1172.5429)"
       style="fill:none;stroke:#ffffff" /><g
       id="SVGRepo_tracerCarrier-7"
       stroke-linecap="round"
       stroke-linejoin="round"
       transform="matrix(14.765906,0,0,14.765907,1754.777,1172.5429)"
       style="fill:none;stroke:#ffffff" /></g><style
     id="style1">.st0{fill:#999999;}</style></svg>
